Library\Bee\artifacts\mvdfrm\Unity.Burst.Editor.ref.dll_4F7B73E229D756B2.mvfrm
Library\Bee\artifacts\mvdfrm\Unity.Burst.ref.dll_A9D47564F0C574EF.mvfrm
Library\Bee\artifacts\mvdfrm\Unity.EditorCoroutines.Editor.ref.dll_A9E741B2F4D7FC42.mvfrm
Library\Bee\artifacts\mvdfrm\Unity.Mathematics.Editor.ref.dll_BC6BEDEBC6F8BA8C.mvfrm
Library\Bee\artifacts\mvdfrm\Unity.Mathematics.ref.dll_09002A919DF91B75.mvfrm
Library\Bee\artifacts\mvdfrm\Unity.Performance.Profile-Analyzer.Editor.ref.dll_7F7FA9B9E03669D2.mvfrm
Library\Bee\artifacts\mvdfrm\Unity.PlasticSCM.Editor.ref.dll_038935ADFCD4A11D.mvfrm
Library\Bee\artifacts\mvdfrm\Unity.RenderPipelines.Core.Editor.ref.dll_5F7FF7A966BF64B8.mvfrm
Library\Bee\artifacts\mvdfrm\Unity.RenderPipelines.Core.Runtime.ref.dll_7D87AD5D9C29EDF3.mvfrm
Library\Bee\artifacts\mvdfrm\Unity.RenderPipelines.Core.ShaderLibrary.ref.dll_D525208FA1B27961.mvfrm
Library\Bee\artifacts\mvdfrm\Unity.RenderPipelines.HighDefinition.Config.Runtime.ref.dll_DF3EBBCD9BA12EE1.mvfrm
Library\Bee\artifacts\mvdfrm\Unity.RenderPipelines.HighDefinition.Editor.ref.dll_8D277AB35407ECD2.mvfrm
Library\Bee\artifacts\mvdfrm\Unity.RenderPipelines.HighDefinition.Runtime.ref.dll_2BAA81FA96CA4F39.mvfrm
Library\Bee\artifacts\mvdfrm\Unity.RenderPipelines.ShaderGraph.ShaderGraphLibrary.ref.dll_E04A448D99127221.mvfrm
Library\Bee\artifacts\mvdfrm\Unity.Rider.Editor.ref.dll_07D7D7B7487B1198.mvfrm
Library\Bee\artifacts\mvdfrm\Unity.Searcher.Editor.ref.dll_131E0B0FB16513F5.mvfrm
Library\Bee\artifacts\mvdfrm\Unity.Services.Core.Analytics.ref.dll_629B993A258DF026.mvfrm
Library\Bee\artifacts\mvdfrm\Unity.Services.Core.Environments.ref.dll_5B2DDA4F5201DC36.mvfrm
Library\Bee\artifacts\mvdfrm\Unity.Services.Core.ref.dll_20594DC17355841E.mvfrm
Library\Bee\artifacts\mvdfrm\Unity.ShaderGraph.Editor.ref.dll_319B33408212A519.mvfrm
Library\Bee\artifacts\mvdfrm\Unity.TestTools.CodeCoverage.Editor.OpenCover.Model.ref.dll_785F74917A23DD9A.mvfrm
Library\Bee\artifacts\mvdfrm\Unity.TestTools.CodeCoverage.Editor.OpenCover.Mono.Reflection.ref.dll_FA96BB8C3E5A37A7.mvfrm
Library\Bee\artifacts\mvdfrm\Unity.TestTools.CodeCoverage.Editor.ref.dll_BD81B1708A4B02E0.mvfrm
Library\Bee\artifacts\mvdfrm\Unity.TextMeshPro.Editor.ref.dll_37E92434B2D8A6CF.mvfrm
Library\Bee\artifacts\mvdfrm\Unity.TextMeshPro.ref.dll_A4B478B3CE6E8702.mvfrm
Library\Bee\artifacts\mvdfrm\Unity.Timeline.Editor.ref.dll_0DA365A2C678CBF9.mvfrm
Library\Bee\artifacts\mvdfrm\Unity.Timeline.ref.dll_733236CB90539738.mvfrm
Library\Bee\artifacts\mvdfrm\Unity.VSCode.Editor.ref.dll_4366BA9A3B756B20.mvfrm
Library\Bee\artifacts\mvdfrm\Unity.VisualEffectGraph.Editor.ref.dll_7773EDBB463BFC55.mvfrm
Library\Bee\artifacts\mvdfrm\Unity.VisualEffectGraph.Runtime.ref.dll_B1A16512ACB78A06.mvfrm
Library\Bee\artifacts\mvdfrm\Unity.VisualScripting.Core.Editor.ref.dll_065CC54F8DD2A924.mvfrm
Library\Bee\artifacts\mvdfrm\Unity.VisualScripting.Core.ref.dll_2F2D99604E6B235D.mvfrm
Library\Bee\artifacts\mvdfrm\Unity.VisualScripting.Flow.Editor.ref.dll_838DADFE9CB13465.mvfrm
Library\Bee\artifacts\mvdfrm\Unity.VisualScripting.Flow.ref.dll_763E79B6D074980C.mvfrm
Library\Bee\artifacts\mvdfrm\Unity.VisualScripting.SettingsProvider.Editor.ref.dll_DB47A982A779F40F.mvfrm
Library\Bee\artifacts\mvdfrm\Unity.VisualScripting.Shared.Editor.ref.dll_634EB3DA1CD7E5BE.mvfrm
Library\Bee\artifacts\mvdfrm\Unity.VisualScripting.State.Editor.ref.dll_8F55C37B46854258.mvfrm
Library\Bee\artifacts\mvdfrm\Unity.VisualScripting.State.ref.dll_06ABD95DCD3386E9.mvfrm
Library\Bee\artifacts\mvdfrm\Unity.VisualStudio.Editor.ref.dll_0788C6E0BDFBBC54.mvfrm
Library\Bee\artifacts\mvdfrm\UnityEditor.TestRunner.ref.dll_3CEDFFDC50464BDC.mvfrm
Library\Bee\artifacts\mvdfrm\UnityEditor.UI.ref.dll_5DAE2CC8CF4B8C9E.mvfrm
Library\Bee\artifacts\mvdfrm\UnityEngine.TestRunner.ref.dll_090C4A8A7C09A9C7.mvfrm
Library\Bee\artifacts\mvdfrm\UnityEngine.UI.ref.dll_1A140323D56DB509.mvfrm
Library\Bee\artifacts\mvdfrm\UnityEditor.Graphs.dll_5F709A9DF20C6EDB.mvfrm
Library\Bee\artifacts\mvdfrm\UnityEditor.CoreModule.dll_ECFF6EB1B9DECDA9.mvfrm
Library\Bee\artifacts\mvdfrm\UnityEditor.DeviceSimulatorModule.dll_E2E2A1E4E1EF2F68.mvfrm
Library\Bee\artifacts\mvdfrm\UnityEditor.DiagnosticsModule.dll_DE966B44158947B6.mvfrm
Library\Bee\artifacts\mvdfrm\UnityEditor.dll_7EDDB40FD2C40B9C.mvfrm
Library\Bee\artifacts\mvdfrm\UnityEditor.GraphViewModule.dll_1644C1FE885B90CD.mvfrm
Library\Bee\artifacts\mvdfrm\UnityEditor.PackageManagerUIModule.dll_5BA1E1FEB59291C5.mvfrm
Library\Bee\artifacts\mvdfrm\UnityEditor.QuickSearchModule.dll_69A5EC516E60440F.mvfrm
Library\Bee\artifacts\mvdfrm\UnityEditor.SceneTemplateModule.dll_DB001D5351A02A70.mvfrm
Library\Bee\artifacts\mvdfrm\UnityEditor.TextCoreFontEngineModule.dll_7F168A02C1E74D07.mvfrm
Library\Bee\artifacts\mvdfrm\UnityEditor.TextCoreTextEngineModule.dll_C6FEC074516B0625.mvfrm
Library\Bee\artifacts\mvdfrm\UnityEditor.UIBuilderModule.dll_6ACD6F1AFB140A01.mvfrm
Library\Bee\artifacts\mvdfrm\UnityEditor.UIElementsModule.dll_F37D061D4CFEC645.mvfrm
Library\Bee\artifacts\mvdfrm\UnityEditor.UIElementsSamplesModule.dll_C74CA6A94AC0C678.mvfrm
Library\Bee\artifacts\mvdfrm\UnityEditor.UIServiceModule.dll_A3BF807DE44B5A1B.mvfrm
Library\Bee\artifacts\mvdfrm\UnityEditor.UnityConnectModule.dll_F2DE5311DA0950DF.mvfrm
Library\Bee\artifacts\mvdfrm\UnityEngine.AccessibilityModule.dll_0DA588EA5216520D.mvfrm
Library\Bee\artifacts\mvdfrm\UnityEngine.AIModule.dll_CE0A38DB7BD400DD.mvfrm
Library\Bee\artifacts\mvdfrm\UnityEngine.AndroidJNIModule.dll_71C5EEF0961E351B.mvfrm
Library\Bee\artifacts\mvdfrm\UnityEngine.AnimationModule.dll_E4CA3E2762B86573.mvfrm
Library\Bee\artifacts\mvdfrm\UnityEngine.ARModule.dll_877CFDDED8F15FA6.mvfrm
Library\Bee\artifacts\mvdfrm\UnityEngine.AssetBundleModule.dll_AD8F1F42D0C6F901.mvfrm
Library\Bee\artifacts\mvdfrm\UnityEngine.AudioModule.dll_53A015E675BAB1A5.mvfrm
Library\Bee\artifacts\mvdfrm\UnityEngine.ClothModule.dll_BA8872E14FD79089.mvfrm
Library\Bee\artifacts\mvdfrm\UnityEngine.ClusterInputModule.dll_727AC8278B9123A5.mvfrm
Library\Bee\artifacts\mvdfrm\UnityEngine.ClusterRendererModule.dll_E88F645651AA3CEC.mvfrm
Library\Bee\artifacts\mvdfrm\UnityEngine.CoreModule.dll_1020420461E438D4.mvfrm
Library\Bee\artifacts\mvdfrm\UnityEngine.CrashReportingModule.dll_2B14B5D451A898EC.mvfrm
Library\Bee\artifacts\mvdfrm\UnityEngine.DirectorModule.dll_1DD0A3BEC9EC1BF1.mvfrm
Library\Bee\artifacts\mvdfrm\UnityEngine.dll_B181FAE831379881.mvfrm
Library\Bee\artifacts\mvdfrm\UnityEngine.DSPGraphModule.dll_232205283C4CED12.mvfrm
Library\Bee\artifacts\mvdfrm\UnityEngine.GameCenterModule.dll_9C13390B5C5F260C.mvfrm
Library\Bee\artifacts\mvdfrm\UnityEngine.GIModule.dll_664681E91782E8F7.mvfrm
Library\Bee\artifacts\mvdfrm\UnityEngine.GridModule.dll_ED915DF27A38CECB.mvfrm
Library\Bee\artifacts\mvdfrm\UnityEngine.HotReloadModule.dll_6612FC2D3DEB80F5.mvfrm
Library\Bee\artifacts\mvdfrm\UnityEngine.ImageConversionModule.dll_54816206D3CEF4E0.mvfrm
Library\Bee\artifacts\mvdfrm\UnityEngine.IMGUIModule.dll_8BFFB54D3BEC4586.mvfrm
Library\Bee\artifacts\mvdfrm\UnityEngine.InputLegacyModule.dll_3ED43A6168B8AEF2.mvfrm
Library\Bee\artifacts\mvdfrm\UnityEngine.InputModule.dll_BA15DD96EBF2D649.mvfrm
Library\Bee\artifacts\mvdfrm\UnityEngine.JSONSerializeModule.dll_6DBD12265151B297.mvfrm
Library\Bee\artifacts\mvdfrm\UnityEngine.LocalizationModule.dll_B0C7927A230D169E.mvfrm
Library\Bee\artifacts\mvdfrm\UnityEngine.NVIDIAModule.dll_CA1AA052B1C38FC0.mvfrm
Library\Bee\artifacts\mvdfrm\UnityEngine.ParticleSystemModule.dll_7E26FF20BFBA247A.mvfrm
Library\Bee\artifacts\mvdfrm\UnityEngine.PerformanceReportingModule.dll_1498347AD8C1A193.mvfrm
Library\Bee\artifacts\mvdfrm\UnityEngine.Physics2DModule.dll_31702E1803B55D08.mvfrm
Library\Bee\artifacts\mvdfrm\UnityEngine.PhysicsModule.dll_CAC467D004FE3316.mvfrm
Library\Bee\artifacts\mvdfrm\UnityEngine.ProfilerModule.dll_5016DCF56345A2FE.mvfrm
Library\Bee\artifacts\mvdfrm\UnityEngine.RuntimeInitializeOnLoadManagerInitializerModule.dll_2A6CF78F6E30DDD1.mvfrm
Library\Bee\artifacts\mvdfrm\UnityEngine.ScreenCaptureModule.dll_87A4BFAB65BDDEF9.mvfrm
Library\Bee\artifacts\mvdfrm\UnityEngine.SharedInternalsModule.dll_D892A0DC4AFCF030.mvfrm
Library\Bee\artifacts\mvdfrm\UnityEngine.SpriteMaskModule.dll_853FAB9B7DCEBB86.mvfrm
Library\Bee\artifacts\mvdfrm\UnityEngine.SpriteShapeModule.dll_C6F04C9D8669310B.mvfrm
Library\Bee\artifacts\mvdfrm\UnityEngine.StreamingModule.dll_995F2B77B2401CB1.mvfrm
Library\Bee\artifacts\mvdfrm\UnityEngine.SubstanceModule.dll_760A3FC0FD931ABF.mvfrm
Library\Bee\artifacts\mvdfrm\UnityEngine.SubsystemsModule.dll_EFED11FD4C16A399.mvfrm
Library\Bee\artifacts\mvdfrm\UnityEngine.TerrainModule.dll_E50AE33EDABC7C04.mvfrm
Library\Bee\artifacts\mvdfrm\UnityEngine.TerrainPhysicsModule.dll_7EA1A7F3D8FD1F07.mvfrm
Library\Bee\artifacts\mvdfrm\UnityEngine.TextCoreFontEngineModule.dll_FD760555D4E50BD2.mvfrm
Library\Bee\artifacts\mvdfrm\UnityEngine.TextCoreTextEngineModule.dll_455E3BC76468C4F0.mvfrm
Library\Bee\artifacts\mvdfrm\UnityEngine.TextRenderingModule.dll_B0E431B61CF55EEE.mvfrm
Library\Bee\artifacts\mvdfrm\UnityEngine.TilemapModule.dll_84074ABFF2795D0D.mvfrm
Library\Bee\artifacts\mvdfrm\UnityEngine.TLSModule.dll_E6374E5269ECCE6A.mvfrm
Library\Bee\artifacts\mvdfrm\UnityEngine.UIElementsModule.dll_F42B73654F42DF90.mvfrm
Library\Bee\artifacts\mvdfrm\UnityEngine.UIElementsNativeModule.dll_A61B9694270B01E7.mvfrm
Library\Bee\artifacts\mvdfrm\UnityEngine.UIModule.dll_C97DD708D81B0689.mvfrm
Library\Bee\artifacts\mvdfrm\UnityEngine.UmbraModule.dll_CE74C1FF02E15D18.mvfrm
Library\Bee\artifacts\mvdfrm\UnityEngine.UNETModule.dll_A2C689EDAEF32E4D.mvfrm
Library\Bee\artifacts\mvdfrm\UnityEngine.UnityAnalyticsCommonModule.dll_AFD6F1BEF2AA3FF1.mvfrm
Library\Bee\artifacts\mvdfrm\UnityEngine.UnityAnalyticsModule.dll_9DC66FEA6BE17676.mvfrm
Library\Bee\artifacts\mvdfrm\UnityEngine.UnityConnectModule.dll_E03DD720D491518A.mvfrm
Library\Bee\artifacts\mvdfrm\UnityEngine.UnityCurlModule.dll_17E6DF58D2CC5760.mvfrm
Library\Bee\artifacts\mvdfrm\UnityEngine.UnityTestProtocolModule.dll_830F5C9BA4BC1BCE.mvfrm
Library\Bee\artifacts\mvdfrm\UnityEngine.UnityWebRequestAssetBundleModule.dll_C72115F0924A81C7.mvfrm
Library\Bee\artifacts\mvdfrm\UnityEngine.UnityWebRequestAudioModule.dll_8C9488595F2C6C2B.mvfrm
Library\Bee\artifacts\mvdfrm\UnityEngine.UnityWebRequestModule.dll_662069B0DEC38F5F.mvfrm
Library\Bee\artifacts\mvdfrm\UnityEngine.UnityWebRequestTextureModule.dll_99D1B38BB97C0560.mvfrm
Library\Bee\artifacts\mvdfrm\UnityEngine.UnityWebRequestWWWModule.dll_102081235428815C.mvfrm
Library\Bee\artifacts\mvdfrm\UnityEngine.VehiclesModule.dll_95939D3E4415EB8C.mvfrm
Library\Bee\artifacts\mvdfrm\UnityEngine.VFXModule.dll_6715E6C1405A37D7.mvfrm
Library\Bee\artifacts\mvdfrm\UnityEngine.VideoModule.dll_78A99A51384CCD4A.mvfrm
Library\Bee\artifacts\mvdfrm\UnityEngine.VirtualTexturingModule.dll_CAA84B02FFB98272.mvfrm
Library\Bee\artifacts\mvdfrm\UnityEngine.VRModule.dll_1C4FFD8E79D58C01.mvfrm
Library\Bee\artifacts\mvdfrm\UnityEngine.WindModule.dll_866F1D2CF31AB73D.mvfrm
Library\Bee\artifacts\mvdfrm\UnityEngine.XRModule.dll_4F0EC093030FD95F.mvfrm
Library\Bee\artifacts\mvdfrm\UnityEditor.WebGL.Extensions.dll_AEF6472290C8D217.mvfrm
Library\Bee\artifacts\mvdfrm\UnityEditor.WindowsStandalone.Extensions.dll_E377B72E03905F87.mvfrm
Library\Bee\artifacts\mvdfrm\Unity.Burst.Cecil.dll_CC794304435A946D.mvfrm
Library\Bee\artifacts\mvdfrm\Unity.Burst.Cecil.Mdb.dll_3EFB3E33C6B30AEA.mvfrm
Library\Bee\artifacts\mvdfrm\Unity.Burst.Cecil.Pdb.dll_564DB6A345680C6D.mvfrm
Library\Bee\artifacts\mvdfrm\Unity.Burst.Cecil.Rocks.dll_61694E3A71010C2D.mvfrm
Library\Bee\artifacts\mvdfrm\Unity.Plastic.Antlr3.Runtime.dll_499F4AB775A1B90B.mvfrm
Library\Bee\artifacts\mvdfrm\Unity.Plastic.Newtonsoft.Json.dll_C4E0311A283851FA.mvfrm
Library\Bee\artifacts\mvdfrm\Unity.VisualScripting.IonicZip.dll_1BE4EBCE99EFBE28.mvfrm
Library\Bee\artifacts\mvdfrm\Unity.VisualScripting.YamlDotNet.dll_87BC653612F176D4.mvfrm
Library\Bee\artifacts\mvdfrm\Unity.VisualScripting.TextureAssets.dll_1EDA8E89D3BED4CC.mvfrm
Library\Bee\artifacts\mvdfrm\Unity.VisualScripting.Antlr3.Runtime.dll_39298C1743BA86F3.mvfrm