Library\Bee\artifacts\mvdfrm\Unity.Services.Core.Configuration.ref.dll_B29F60A31153FE96.mvfrm
Library\Bee\artifacts\mvdfrm\Unity.Services.Core.Internal.ref.dll_150789D47024FA93.mvfrm
Library\Bee\artifacts\mvdfrm\Unity.Services.Core.ref.dll_20594DC17355841E.mvfrm
Library\Bee\artifacts\mvdfrm\UnityEditor.TestRunner.ref.dll_3CEDFFDC50464BDC.mvfrm
Library\Bee\artifacts\mvdfrm\UnityEditor.UI.ref.dll_5DAE2CC8CF4B8C9E.mvfrm
Library\Bee\artifacts\mvdfrm\UnityEngine.TestRunner.ref.dll_090C4A8A7C09A9C7.mvfrm
Library\Bee\artifacts\mvdfrm\UnityEngine.UI.ref.dll_1A140323D56DB509.mvfrm
Library\Bee\artifacts\mvdfrm\UnityEditor.Graphs.dll_5F709A9DF20C6EDB.mvfrm
Library\Bee\artifacts\mvdfrm\UnityEditor.CoreModule.dll_ECFF6EB1B9DECDA9.mvfrm
Library\Bee\artifacts\mvdfrm\UnityEditor.DeviceSimulatorModule.dll_E2E2A1E4E1EF2F68.mvfrm
Library\Bee\artifacts\mvdfrm\UnityEditor.DiagnosticsModule.dll_DE966B44158947B6.mvfrm
Library\Bee\artifacts\mvdfrm\UnityEditor.dll_7EDDB40FD2C40B9C.mvfrm
Library\Bee\artifacts\mvdfrm\UnityEditor.GraphViewModule.dll_1644C1FE885B90CD.mvfrm
Library\Bee\artifacts\mvdfrm\UnityEditor.PackageManagerUIModule.dll_5BA1E1FEB59291C5.mvfrm
Library\Bee\artifacts\mvdfrm\UnityEditor.QuickSearchModule.dll_69A5EC516E60440F.mvfrm
Library\Bee\artifacts\mvdfrm\UnityEditor.SceneTemplateModule.dll_DB001D5351A02A70.mvfrm
Library\Bee\artifacts\mvdfrm\UnityEditor.TextCoreFontEngineModule.dll_7F168A02C1E74D07.mvfrm
Library\Bee\artifacts\mvdfrm\UnityEditor.TextCoreTextEngineModule.dll_C6FEC074516B0625.mvfrm
Library\Bee\artifacts\mvdfrm\UnityEditor.UIBuilderModule.dll_6ACD6F1AFB140A01.mvfrm
Library\Bee\artifacts\mvdfrm\UnityEditor.UIElementsModule.dll_F37D061D4CFEC645.mvfrm
Library\Bee\artifacts\mvdfrm\UnityEditor.UIElementsSamplesModule.dll_C74CA6A94AC0C678.mvfrm
Library\Bee\artifacts\mvdfrm\UnityEditor.UIServiceModule.dll_A3BF807DE44B5A1B.mvfrm
Library\Bee\artifacts\mvdfrm\UnityEditor.UnityConnectModule.dll_F2DE5311DA0950DF.mvfrm
Library\Bee\artifacts\mvdfrm\UnityEngine.AccessibilityModule.dll_0DA588EA5216520D.mvfrm
Library\Bee\artifacts\mvdfrm\UnityEngine.AIModule.dll_CE0A38DB7BD400DD.mvfrm
Library\Bee\artifacts\mvdfrm\UnityEngine.AndroidJNIModule.dll_71C5EEF0961E351B.mvfrm
Library\Bee\artifacts\mvdfrm\UnityEngine.AnimationModule.dll_E4CA3E2762B86573.mvfrm
Library\Bee\artifacts\mvdfrm\UnityEngine.ARModule.dll_877CFDDED8F15FA6.mvfrm
Library\Bee\artifacts\mvdfrm\UnityEngine.AssetBundleModule.dll_AD8F1F42D0C6F901.mvfrm
Library\Bee\artifacts\mvdfrm\UnityEngine.AudioModule.dll_53A015E675BAB1A5.mvfrm
Library\Bee\artifacts\mvdfrm\UnityEngine.ClothModule.dll_BA8872E14FD79089.mvfrm
Library\Bee\artifacts\mvdfrm\UnityEngine.ClusterInputModule.dll_727AC8278B9123A5.mvfrm
Library\Bee\artifacts\mvdfrm\UnityEngine.ClusterRendererModule.dll_E88F645651AA3CEC.mvfrm
Library\Bee\artifacts\mvdfrm\UnityEngine.CoreModule.dll_1020420461E438D4.mvfrm
Library\Bee\artifacts\mvdfrm\UnityEngine.CrashReportingModule.dll_2B14B5D451A898EC.mvfrm
Library\Bee\artifacts\mvdfrm\UnityEngine.DirectorModule.dll_1DD0A3BEC9EC1BF1.mvfrm
Library\Bee\artifacts\mvdfrm\UnityEngine.dll_B181FAE831379881.mvfrm
Library\Bee\artifacts\mvdfrm\UnityEngine.DSPGraphModule.dll_232205283C4CED12.mvfrm
Library\Bee\artifacts\mvdfrm\UnityEngine.GameCenterModule.dll_9C13390B5C5F260C.mvfrm
Library\Bee\artifacts\mvdfrm\UnityEngine.GIModule.dll_664681E91782E8F7.mvfrm
Library\Bee\artifacts\mvdfrm\UnityEngine.GridModule.dll_ED915DF27A38CECB.mvfrm
Library\Bee\artifacts\mvdfrm\UnityEngine.HotReloadModule.dll_6612FC2D3DEB80F5.mvfrm
Library\Bee\artifacts\mvdfrm\UnityEngine.ImageConversionModule.dll_54816206D3CEF4E0.mvfrm
Library\Bee\artifacts\mvdfrm\UnityEngine.IMGUIModule.dll_8BFFB54D3BEC4586.mvfrm
Library\Bee\artifacts\mvdfrm\UnityEngine.InputLegacyModule.dll_3ED43A6168B8AEF2.mvfrm
Library\Bee\artifacts\mvdfrm\UnityEngine.InputModule.dll_BA15DD96EBF2D649.mvfrm
Library\Bee\artifacts\mvdfrm\UnityEngine.JSONSerializeModule.dll_6DBD12265151B297.mvfrm
Library\Bee\artifacts\mvdfrm\UnityEngine.LocalizationModule.dll_B0C7927A230D169E.mvfrm
Library\Bee\artifacts\mvdfrm\UnityEngine.NVIDIAModule.dll_CA1AA052B1C38FC0.mvfrm
Library\Bee\artifacts\mvdfrm\UnityEngine.ParticleSystemModule.dll_7E26FF20BFBA247A.mvfrm
Library\Bee\artifacts\mvdfrm\UnityEngine.PerformanceReportingModule.dll_1498347AD8C1A193.mvfrm
Library\Bee\artifacts\mvdfrm\UnityEngine.Physics2DModule.dll_31702E1803B55D08.mvfrm
Library\Bee\artifacts\mvdfrm\UnityEngine.PhysicsModule.dll_CAC467D004FE3316.mvfrm
Library\Bee\artifacts\mvdfrm\UnityEngine.ProfilerModule.dll_5016DCF56345A2FE.mvfrm
Library\Bee\artifacts\mvdfrm\UnityEngine.RuntimeInitializeOnLoadManagerInitializerModule.dll_2A6CF78F6E30DDD1.mvfrm
Library\Bee\artifacts\mvdfrm\UnityEngine.ScreenCaptureModule.dll_87A4BFAB65BDDEF9.mvfrm
Library\Bee\artifacts\mvdfrm\UnityEngine.SharedInternalsModule.dll_D892A0DC4AFCF030.mvfrm
Library\Bee\artifacts\mvdfrm\UnityEngine.SpriteMaskModule.dll_853FAB9B7DCEBB86.mvfrm
Library\Bee\artifacts\mvdfrm\UnityEngine.SpriteShapeModule.dll_C6F04C9D8669310B.mvfrm
Library\Bee\artifacts\mvdfrm\UnityEngine.StreamingModule.dll_995F2B77B2401CB1.mvfrm
Library\Bee\artifacts\mvdfrm\UnityEngine.SubstanceModule.dll_760A3FC0FD931ABF.mvfrm
Library\Bee\artifacts\mvdfrm\UnityEngine.SubsystemsModule.dll_EFED11FD4C16A399.mvfrm
Library\Bee\artifacts\mvdfrm\UnityEngine.TerrainModule.dll_E50AE33EDABC7C04.mvfrm
Library\Bee\artifacts\mvdfrm\UnityEngine.TerrainPhysicsModule.dll_7EA1A7F3D8FD1F07.mvfrm
Library\Bee\artifacts\mvdfrm\UnityEngine.TextCoreFontEngineModule.dll_FD760555D4E50BD2.mvfrm
Library\Bee\artifacts\mvdfrm\UnityEngine.TextCoreTextEngineModule.dll_455E3BC76468C4F0.mvfrm
Library\Bee\artifacts\mvdfrm\UnityEngine.TextRenderingModule.dll_B0E431B61CF55EEE.mvfrm
Library\Bee\artifacts\mvdfrm\UnityEngine.TilemapModule.dll_84074ABFF2795D0D.mvfrm
Library\Bee\artifacts\mvdfrm\UnityEngine.TLSModule.dll_E6374E5269ECCE6A.mvfrm
Library\Bee\artifacts\mvdfrm\UnityEngine.UIElementsModule.dll_F42B73654F42DF90.mvfrm
Library\Bee\artifacts\mvdfrm\UnityEngine.UIElementsNativeModule.dll_A61B9694270B01E7.mvfrm
Library\Bee\artifacts\mvdfrm\UnityEngine.UIModule.dll_C97DD708D81B0689.mvfrm
Library\Bee\artifacts\mvdfrm\UnityEngine.UmbraModule.dll_CE74C1FF02E15D18.mvfrm
Library\Bee\artifacts\mvdfrm\UnityEngine.UNETModule.dll_A2C689EDAEF32E4D.mvfrm
Library\Bee\artifacts\mvdfrm\UnityEngine.UnityAnalyticsCommonModule.dll_AFD6F1BEF2AA3FF1.mvfrm
Library\Bee\artifacts\mvdfrm\UnityEngine.UnityAnalyticsModule.dll_9DC66FEA6BE17676.mvfrm
Library\Bee\artifacts\mvdfrm\UnityEngine.UnityConnectModule.dll_E03DD720D491518A.mvfrm
Library\Bee\artifacts\mvdfrm\UnityEngine.UnityCurlModule.dll_17E6DF58D2CC5760.mvfrm
Library\Bee\artifacts\mvdfrm\UnityEngine.UnityTestProtocolModule.dll_830F5C9BA4BC1BCE.mvfrm
Library\Bee\artifacts\mvdfrm\UnityEngine.UnityWebRequestAssetBundleModule.dll_C72115F0924A81C7.mvfrm
Library\Bee\artifacts\mvdfrm\UnityEngine.UnityWebRequestAudioModule.dll_8C9488595F2C6C2B.mvfrm
Library\Bee\artifacts\mvdfrm\UnityEngine.UnityWebRequestModule.dll_662069B0DEC38F5F.mvfrm
Library\Bee\artifacts\mvdfrm\UnityEngine.UnityWebRequestTextureModule.dll_99D1B38BB97C0560.mvfrm
Library\Bee\artifacts\mvdfrm\UnityEngine.UnityWebRequestWWWModule.dll_102081235428815C.mvfrm
Library\Bee\artifacts\mvdfrm\UnityEngine.VehiclesModule.dll_95939D3E4415EB8C.mvfrm
Library\Bee\artifacts\mvdfrm\UnityEngine.VFXModule.dll_6715E6C1405A37D7.mvfrm
Library\Bee\artifacts\mvdfrm\UnityEngine.VideoModule.dll_78A99A51384CCD4A.mvfrm
Library\Bee\artifacts\mvdfrm\UnityEngine.VirtualTexturingModule.dll_CAA84B02FFB98272.mvfrm
Library\Bee\artifacts\mvdfrm\UnityEngine.VRModule.dll_1C4FFD8E79D58C01.mvfrm
Library\Bee\artifacts\mvdfrm\UnityEngine.WindModule.dll_866F1D2CF31AB73D.mvfrm
Library\Bee\artifacts\mvdfrm\UnityEngine.XRModule.dll_4F0EC093030FD95F.mvfrm
Library\Bee\artifacts\mvdfrm\UnityEditor.WebGL.Extensions.dll_AEF6472290C8D217.mvfrm
Library\Bee\artifacts\mvdfrm\UnityEditor.WindowsStandalone.Extensions.dll_E377B72E03905F87.mvfrm
Library\Bee\artifacts\mvdfrm\Unity.Burst.Cecil.dll_F629EDBAC1A7F941.mvfrm
Library\Bee\artifacts\mvdfrm\Unity.Burst.Cecil.Mdb.dll_16DB51A5FE8104BE.mvfrm
Library\Bee\artifacts\mvdfrm\Unity.Burst.Cecil.Pdb.dll_2E2DCA157D360641.mvfrm
Library\Bee\artifacts\mvdfrm\Unity.Burst.Cecil.Rocks.dll_C7D5D2F803D14881.mvfrm
Library\Bee\artifacts\mvdfrm\Unity.Plastic.Antlr3.Runtime.dll_D1CF5232E22B93F7.mvfrm
Library\Bee\artifacts\mvdfrm\Unity.Plastic.Newtonsoft.Json.dll_8C6098C265F1E24E.mvfrm
Library\Bee\artifacts\mvdfrm\Unity.VisualScripting.IonicZip.dll_0E126E840477F67C.mvfrm
Library\Bee\artifacts\mvdfrm\Unity.VisualScripting.YamlDotNet.dll_9AEBD1E4F98A84C0.mvfrm
Library\Bee\artifacts\mvdfrm\Unity.VisualScripting.TextureAssets.dll_3209FB38BA57E2B8.mvfrm
Library\Bee\artifacts\mvdfrm\Unity.VisualScripting.Antlr3.Runtime.dll_4C58F8C62A5394DF.mvfrm